…
### Adding a Lane Layer

Let’s get started building our swimmer plot! As with the README, we will
be using ggswim’s internal datasets: `patient_data`, `infusion_events`,
and `end_study_events`.

Let’s start with observing `patient_data`’s structure:

    #> # A tibble: 75 × 4
    #>    pt_id disease_assessment       start_time end_time
    #>    <chr> <chr>                         <dbl>    <dbl>
    #>  1 01    CR/CRi + B Cell Recovery       -2.8      0  
    #>  2 01    RD                              0        0.9
    #>  3 01    CR/CRi + B Cell Aplasia         0.9      0  
    #>  4 01    CR/CRi + B Cell Aplasia         0        1.8
    #>  5 01    CR/CRi + B Cell Recovery        1.8      2  
    #>  6 02    RD                             -2.8      0  
    #>  7 02    CRi                             0        0.2
    #>  8 03    CR/CRi + B Cell Recovery       -2.4      0  
    #>  9 03    CR/CRi + B Cell Recovery        0        0.9
    #> 10 03    CR/CRi + B Cell Aplasia         0.9      2.8
    #> # ℹ 65 more rows
…
While it’s common to encounter these as separate datasets in the wild,
it will make our lives much easier to combine `end_study_events` and
`infusion_events` together since they share roughly the same data
structure and the markers exist on the same timeline.

``` r
all_events <- dplyr::bind_rows(
  infusion_events,
  end_study_events
)

all_events
#> # A tibble: 25 × 5
#>    pt_id time_from_initial_infusion label             glyph colour 
#>    <chr>                      <dbl> <chr>             <chr> <chr>  
#>  1 01                           1   First Reinfusion  ⬤     #999999
#>  2 02                           0   First Reinfusion  ⬤     #999999
#>  3 03                           2   First Reinfusion  ⬤     #999999
#>  4 03                           3   Second Reinfusion ⬤     #f57dc1
#>  5 04                           5   First Reinfusion  ⬤     #999999
#>  6 05                           2   First Reinfusion  ⬤     #999999
#>  7 05                           4.3 Second Reinfusion ⬤     #f57dc1
#>  8 06                           2   First Reinfusion  ⬤     #999999
#>  9 08                           1   First Reinfusion  ⬤     #999999
#> 10 08                           2.5 Second Reinfusion ⬤     #f57dc1
#> # ℹ 15 more rows
```
…
