Getting Started with ggswim • ggswim
…
While it’s common to encounter these as separate datasets in the
wild, it will make our lives much easier to combine
end_study_events and infusion_events together
since they share roughly the same data structure and the markers exist
on the same timeline.

all_events <- dplyr::bind_rows(
  infusion_events,
  end_study_events
)

all_events
#> # A tibble: 25 × 5
#>    pt_id time_from_initial_infusion label             glyph colour 
#>    <chr>                      <dbl> <chr>             <chr> <chr>  
#>  1 01                           1   First Reinfusion  ⬤     #999999
#>  2 02                           0   First Reinfusion  ⬤     #999999
#>  3 03                           2   First Reinfusion  ⬤     #999999
#>  4 03                           3   Second Reinfusion ⬤     #f57dc1
#>  5 04                           5   First Reinfusion  ⬤     #999999
#>  6 05                           2   First Reinfusion  ⬤     #999999
#>  7 05                           4.3 Second Reinfusion ⬤     #f57dc1
#>  8 06                           2   First Reinfusion  ⬤     #999999
#>  9 08                           1   First Reinfusion  ⬤     #999999
#> 10 08                           2.5 Second Reinfusion ⬤     #f57dc1
#> # ℹ 15 more rows
…
